{
    "key": "group_5ae36b8020244",
    "title": "Posts",
    "fields": [
        {
            "key": "field_5ae36b8688120",
            "label": "Featured",
            "name": "featured",
            "type": "true_false",
            "instructions": "Check this box if you'd like this post to display as a featured post.",
            "required": 0,
            "conditional_logic": 0,
            "wrapper": {
                "width": "",
                "class": "",
                "id": ""
            },
            "message": "",
            "default_value": 0,
            "ui": 0,
            "ui_on_text": "",
            "ui_off_text": ""
        }
    ],
    "location": [
        [
            {
                "param": "post_type",
                "operator": "==",
                "value": "post"
            }
        ]
    ],
    "menu_order": 0,
    "position": "normal",
    "style": "default",
    "label_placement": "top",
    "instruction_placement": "label",
    "hide_on_screen": "",
    "active": 1,
    "description": "",
    "modified": 1524853689
}